Assignment 7
…
Question 3

Create a new vector named cl_labels, by taking a random sample of size 200 from labels without replacement.

cl_labels <- sample(labels, size = 200, replace = FALSE)

Question 4

Create a new column in df named label, with the entries in cl_labels as its values.

df$label <- c(cl_labels)
df

# A tibble: 200 × 3
       X1     X2 label
    <dbl>  <dbl> <chr>
 1 -4.46  -1.27  1    
 2 -2.69  -1.78  1    
 3 -3.29  -2.36  2    
 4 -2.38  -2.46  1    
 5 -0.985 -1.09  2    
 6 -2.62  -0.958 1    
 7 -2.05  -1.72  1    
 8 -3.40  -2.38  2    
 9 -1.69  -3.47  1    
10 -1.11  -3.37  1    
# ℹ 190 more rows
…
